hepl\sysdist\front\config\WebSecurityConfig.class
hepl\sysdist\front\Client.class
hepl\sysdist\front\config\CustomUserDetailsService.class
hepl\sysdist\front\serviceclient\TVAServiceClient.class
hepl\sysdist\front\App.class
hepl\sysdist\front\serviceclient\dto\ItemDto.class
hepl\sysdist\front\controller\HomeController.class
hepl\sysdist\front\serviceclient\dto\TVADto.class
hepl\sysdist\front\UserRepository.class
hepl\sysdist\front\controller\LoginController.class
hepl\sysdist\front\serviceclient\ItemServiceClient.class
