C:\Users\bourg\git\ServiceTVA\src\main\java\hepl\sysdist\tva\TvaController.java
C:\Users\bourg\git\ServiceTVA\src\main\java\hepl\sysdist\tva\TvaService.java
C:\Users\bourg\git\ServiceTVA\src\main\java\hepl\sysdist\tva\App.java
C:\Users\bourg\git\ServiceTVA\src\main\java\hepl\sysdist\tva\TVADto.java
