hepl\sysdist\order\OrderRepository.class
hepl\sysdist\order\OrderController.class
hepl\sysdist\order\OrderService.class
hepl\sysdist\order\Item.class
hepl\sysdist\order\ItemDto.class
hepl\sysdist\order\Order.class
hepl\sysdist\order\OrderDto.class
hepl\sysdist\order\App.class
